^C:\Users\Leon.Andersson\source\repos\T2Engine\Game\Game.vcxproj
C:\Users\Leon.Andersson\source\repos\T2Engine\binaries\Release-x64\Game\Game.ipdb
C:\Users\Leon.Andersson\source\repos\T2Engine\binaries\Release-x64\Game\Game.iobj
^C:\Users\Leon.Andersson\source\repos\T2Engine\Game\Game.vcxproj
C:\Users\Leon.Andersson\source\repos\T2Engine\binaries\Release-x64\Game\Game.ipdb
C:\Users\Leon.Andersson\source\repos\T2Engine\binaries\Release-x64\Game\Game.iobj
^C:\Users\Leon.Andersson\source\repos\T2Engine\Game\Game.vcxproj
C:\Users\Leon.Andersson\source\repos\T2Engine\binaries\Release-x64\Game\Game.ipdb
C:\Users\Leon.Andersson\source\repos\T2Engine\binaries\Release-x64\Game\Game.iobj
^C:\Users\Leon.Andersson\source\repos\T2Engine\Game\Game.vcxproj
C:\Users\Leon.Andersson\source\repos\T2Engine\binaries\Release-x64\Game\Game.ipdb
C:\Users\Leon.Andersson\source\repos\T2Engine\binaries\Release-x64\Game\Game.iobj
^C:\Users\Leon.Andersson\source\repos\T2Engine\Game\Game.vcxproj
C:\Users\Leon.Andersson\source\repos\T2Engine\binaries\Release-x64\Game\Game.ipdb
C:\Users\Leon.Andersson\source\repos\T2Engine\binaries\Release-x64\Game\Game.iobj
^C:\Users\Leon.Andersson\source\repos\T2Engine\Game\Game.vcxproj
C:\Users\Leon.Andersson\source\repos\T2Engine\binaries\Release-x64\Game\Game.ipdb
C:\Users\Leon.Andersson\source\repos\T2Engine\binaries\Release-x64\Game\Game.iobj
^C:\Users\Leon.Andersson\source\repos\T2Engine\Game\Game.vcxproj
C:\Users\Leon.Andersson\source\repos\T2Engine\binaries\Release-x64\Game\Game.ipdb
C:\Users\Leon.Andersson\source\repos\T2Engine\binaries\Release-x64\Game\Game.iobj
^C:\Users\Leon.Andersson\source\repos\T2Engine\Game\Game.vcxproj
C:\Users\Leon.Andersson\source\repos\T2Engine\binaries\Release-x64\Game\Game.ipdb
C:\Users\Leon.Andersson\source\repos\T2Engine\binaries\Release-x64\Game\Game.iobj
