^C:\USERS\LEON.ANDERSSON\SOURCE\REPOS\T2ENGINE\INTERMEDIATE\RELEASE-X64\GAME\GAME.OBJ
C:\USERS\LEON.ANDERSSON\SOURCE\REPOS\T2ENGINE\BINARIES\RELEASE-X64\GAME\GAME.EXE
C:\USERS\LEON.ANDERSSON\SOURCE\REPOS\T2ENGINE\BINARIES\RELEASE-X64\GAME\GAME.PDB
