^C:\USERS\LEON.ANDERSSON\SOURCE\REPOS\T2ENGINE\INTERMEDIATE\DEBUG-X64\T2ENGINE\ENGINEENTRY.OBJ|C:\USERS\LEON.ANDERSSON\SOURCE\REPOS\T2ENGINE\INTERMEDIATE\DEBUG-X64\T2ENGINE\ERRORLOGGER.OBJ|C:\USERS\LEON.ANDERSSON\SOURCE\REPOS\T2ENGINE\INTERMEDIATE\DEBUG-X64\T2ENGINE\T2ENGINE.OBJ
C:\USERS\LEON.ANDERSSON\SOURCE\REPOS\T2ENGINE\EXTERNAL\SDL2\LIB\X64\SDL2.LIB
C:\WINDOWS\SYSTEM32\TZRES.DLL
C:\USERS\LEON.ANDERSSON\SOURCE\REPOS\T2ENGINE\EXTERNAL\SDL2_IMG\LIB\X64\SDL2_IMAGE.LIB
C:\USERS\LEON.ANDERSSON\SOURCE\REPOS\T2ENGINE\EXTERNAL\SDL2_TTF\LIB\X64\SDL2_TTF.LIB
C:\USERS\LEON.ANDERSSON\SOURCE\REPOS\T2ENGINE\EXTERNAL\SDL2_MIX\LIB\X64\SDL2_MIXER.LIB
C:\USERS\LEON.ANDERSSON\SOURCE\REPOS\T2ENGINE\INTERMEDIATE\DEBUG-X64\T2ENGINE\ERRORLOGGER.OBJ
C:\USERS\LEON.ANDERSSON\SOURCE\REPOS\T2ENGINE\INTERMEDIATE\DEBUG-X64\T2ENGINE\T2ENGINE.OBJ
C:\USERS\LEON.ANDERSSON\SOURCE\REPOS\T2ENGINE\INTERMEDIATE\DEBUG-X64\T2ENGINE\ENGINEENTRY.OBJ
C:\WINDOWS\GLOBALIZATION\SORTING\SORTDEFAULT.NLS
C:\PROGRAM FILES (X86)\MICROSOFT VISUAL STUDIO\2019\COMMUNITY\VC\TOOLS\MSVC\14.22.27905\BIN\HOSTX86\X64\1033\LINKUI.DLL
