^C:\USERS\LEON.ANDERSSON\SOURCE\REPOS\T2ENGINE\GAME\GAME.CPP
C:\USERS\LEON.ANDERSSON\SOURCE\REPOS\T2ENGINE\INTERMEDIATE\DEBUG-X64\GAME\VC142.PDB
C:\USERS\LEON.ANDERSSON\SOURCE\REPOS\T2ENGINE\INTERMEDIATE\DEBUG-X64\GAME\VC142.IDB
C:\USERS\LEON.ANDERSSON\SOURCE\REPOS\T2ENGINE\INTERMEDIATE\DEBUG-X64\GAME\GAME.OBJ
