^C:\USERS\LEON.ANDERSSON\SOURCE\REPOS\T2ENGINE\T2ENGINE\ERRORLOGGER.CPP
/c /IC:\USERS\LEON.ANDERSSON\SOURCE\REPOS\T2ENGINE\EXTERNAL\SDL2\INCLUDE /IC:\USERS\LEON.ANDERSSON\SOURCE\REPOS\T2ENGINE\EXTERNAL\SDL2_MIX\INCLUDE /IC:\USERS\LEON.ANDERSSON\SOURCE\REPOS\T2ENGINE\EXTERNAL\SDL2_IMG\INCLUDE /IC:\USERS\LEON.ANDERSSON\SOURCE\REPOS\T2ENGINE\EXTERNAL\SDL2_TTF\INCLUDE /Zi /nologo /W3 /WX- /diagnostics:column /sdl /O2 /Oi /GL /D SDL_MAIN_HANDLED /D NDEBUG /D _CONSOLE /D _UNICODE /D UNICODE /Gm- /EHsc /MD /GS /Gy /fp:precise /permissive- /Zc:wchar_t /Zc:forScope /Zc:inline /Fo"C:\USERS\LEON.ANDERSSON\SOURCE\REPOS\T2ENGINE\INTERMEDIATE\RELEASE-X64\T2ENGINE\\" /Fd"C:\USERS\LEON.ANDERSSON\SOURCE\REPOS\T2ENGINE\INTERMEDIATE\RELEASE-X64\T2ENGINE\T2ENGINE.PDB" /Gd /TP /FC C:\USERS\LEON.ANDERSSON\SOURCE\REPOS\T2ENGINE\T2ENGINE\ERRORLOGGER.CPP
^C:\USERS\LEON.ANDERSSON\SOURCE\REPOS\T2ENGINE\T2ENGINE\T2ENGINE.CPP
/c /IC:\USERS\LEON.ANDERSSON\SOURCE\REPOS\T2ENGINE\EXTERNAL\SDL2\INCLUDE /IC:\USERS\LEON.ANDERSSON\SOURCE\REPOS\T2ENGINE\EXTERNAL\SDL2_MIX\INCLUDE /IC:\USERS\LEON.ANDERSSON\SOURCE\REPOS\T2ENGINE\EXTERNAL\SDL2_IMG\INCLUDE /IC:\USERS\LEON.ANDERSSON\SOURCE\REPOS\T2ENGINE\EXTERNAL\SDL2_TTF\INCLUDE /Zi /nologo /W3 /WX- /diagnostics:column /sdl /O2 /Oi /GL /D SDL_MAIN_HANDLED /D NDEBUG /D _CONSOLE /D _UNICODE /D UNICODE /Gm- /EHsc /MD /GS /Gy /fp:precise /permissive- /Zc:wchar_t /Zc:forScope /Zc:inline /Fo"C:\USERS\LEON.ANDERSSON\SOURCE\REPOS\T2ENGINE\INTERMEDIATE\RELEASE-X64\T2ENGINE\\" /Fd"C:\USERS\LEON.ANDERSSON\SOURCE\REPOS\T2ENGINE\INTERMEDIATE\RELEASE-X64\T2ENGINE\T2ENGINE.PDB" /Gd /TP /FC C:\USERS\LEON.ANDERSSON\SOURCE\REPOS\T2ENGINE\T2ENGINE\T2ENGINE.CPP
^C:\USERS\LEON.ANDERSSON\SOURCE\REPOS\T2ENGINE\T2ENGINE\ENGINEENTRY.H
/c /IC:\USERS\LEON.ANDERSSON\SOURCE\REPOS\T2ENGINE\EXTERNAL\SDL2\INCLUDE /IC:\USERS\LEON.ANDERSSON\SOURCE\REPOS\T2ENGINE\EXTERNAL\SDL2_MIX\INCLUDE /IC:\USERS\LEON.ANDERSSON\SOURCE\REPOS\T2ENGINE\EXTERNAL\SDL2_IMG\INCLUDE /IC:\USERS\LEON.ANDERSSON\SOURCE\REPOS\T2ENGINE\EXTERNAL\SDL2_TTF\INCLUDE /Zi /nologo /W3 /WX- /diagnostics:column /sdl /O2 /Oi /GL /D SDL_MAIN_HANDLED /D NDEBUG /D _CONSOLE /D _UNICODE /D UNICODE /Gm- /EHsc /MD /GS /Gy /fp:precise /permissive- /Zc:wchar_t /Zc:forScope /Zc:inline /Fo"C:\USERS\LEON.ANDERSSON\SOURCE\REPOS\T2ENGINE\INTERMEDIATE\RELEASE-X64\T2ENGINE\\" /Fd"C:\USERS\LEON.ANDERSSON\SOURCE\REPOS\T2ENGINE\INTERMEDIATE\RELEASE-X64\T2ENGINE\T2ENGINE.PDB" /Gd /TP /FC C:\USERS\LEON.ANDERSSON\SOURCE\REPOS\T2ENGINE\T2ENGINE\ENGINEENTRY.H
